
{
  "node_1_name": {
    "mean": 1.6,
    "variance": 5.1,
    "parents_names": [],
    "parents_coeffs": []
  },
  "node_2_name": {
    "mean": 4.9,
    "variance": 2.2,
    "parents_names": [],
    "parents_coeffs": []
  },
    "node_3_name": {
    "mean": 9.0,
    "variance": 10.4,
    "parents_names": ["node_1_name", "node_2_name"],
    "parents_coeffs": [0.2, 0.8]
  }
}

