{
  "miscellaneous_parameters": {
    "prob_params_type": "continuous"
  },

  "discrete_features": {
    "brain_region": {
      "hippocampus": {
        "color": "#14cb72"
      },
      "visual_cortex": {
        "color": "#98ca12"
      },
      "hypothalamus": {
        "color": "#511a85"
      }
    },
    "disease": {
      "parkinson": {
        "color": "#401b72"
      },
      "alzheimer": {
        "color": "#81ca12"
      }
    }
  },

  "nodes": {
    "asia": {
      "prob_params":{
        "mean": 0.5,
        "sd": 1.2
      },
      "discrete_features": {
        "brain_region": ["hippocampus"],
        "disease": ["parkinson"]
      }
    },
    "lung": {
      "prob_params":{
        "mean": 0.5,
        "sd": 1.2
      },
      "discrete_features": {
        "brain_region": ["hippocampus"],
        "disease": ["parkinson"]
      }
    },
    "smoke": {
      "prob_params":{
        "mean": 0.5,
        "sd": 1.2
      },
      "discrete_features": {
        "brain_region": ["visual_cortex"],
        "disease": ["parkinson"]
      }
    },
    "xray": {
      "prob_params":{
        "mean": 0.5,
        "sd": 1.2
      },
      "discrete_features": {
        "brain_region": ["visual_cortex"],
        "disease": ["parkinson"]
      }
    },
    "bronc": {
      "prob_params":{
        "mean": 0.5,
        "sd": 1.2
      },
      "discrete_features": {
        "brain_region": ["visual_cortex"],
        "disease": ["parkinson"]
      }
    },
    "tub": {
      "prob_params":{
        "mean": 0.5,
        "sd": 1.2
      },
      "discrete_features": {
        "brain_region": ["hypothalamus"],
        "disease": ["alzheimer"]
      }
    },
    "either": {
      "prob_params":{
        "mean": 0.5,
        "sd": 1.2
      },
      "discrete_features": {
        "brain_region": ["hypothalamus"],
        "disease": ["alzheimer"]
      }
    },
    "dysp": {
      "prob_params":{
        "mean": 0.5,
        "sd": 1.2
      },
      "discrete_features": {
        "brain_region": ["hypothalamus"],
        "disease": ["alzheimer"]
      }
    }
  }

}
